[gd_scene load_steps=8 format=2]

[ext_resource path="res://Fields/LevelGrassland.gd" type="Script" id=1]
[ext_resource path="res://View/PlayingClock.tscn" type="PackedScene" id=2]
[ext_resource path="res://Background/ParallaxBackground.tscn" type="PackedScene" id=5]
[ext_resource path="res://Debug/DebugPanel.tscn" type="PackedScene" id=6]
[ext_resource path="res://Player/GameOverDialog.tscn" type="PackedScene" id=7]
[ext_resource path="res://View/HUD.tscn" type="PackedScene" id=8]
[ext_resource path="res://Music/深遠の彼方.ogg" type="AudioStream" id=9]

[node name="LevelGrassland" type="Node2D"]
script = ExtResource( 1 )

[node name="HUD" parent="." instance=ExtResource( 8 )]
offset = Vector2( 8, 8 )
transform = Transform2D( 1, 0, 0, 1, 8, 8 )

[node name="ParallaxBackground" parent="." instance=ExtResource( 5 )]

[node name="DebugPanel" parent="." instance=ExtResource( 6 )]
offset = Vector2( 10, 80 )
transform = Transform2D( 1, 0, 0, 1, 10, 80 )

[node name="BgmPlayer" type="AudioStreamPlayer" parent="."]
stream = ExtResource( 9 )
bus = "Music"

[node name="GameOverDialog" parent="." instance=ExtResource( 7 )]

[node name="PlayingClock" parent="." instance=ExtResource( 2 )]
offset = Vector2( 600, 0 )
transform = Transform2D( 1, 0, 0, 1, 600, 0 )
