[gd_resource type="FontFile" load_steps=2 format=2]

[ext_resource path="res://Fonts/mplus-2p-regular.ttf" type="FontFile" id=1]

[resource]
size = 48
outline_size = 2
outline_color = Color( 0.92549, 0.952941, 0.0666667, 1 )
font_data = ExtResource( 1 )
