[gd_scene load_steps=3 format=2]

[ext_resource path="res://Fonts/PlayingClock.tres" type="FontFile" id=1]
[ext_resource path="res://View/PlayingClock.gd" type="Script" id=2]

[node name="PlayingClock" type="CanvasLayer"]
script = ExtResource( 2 )

[node name="PlayingClockLabel" type="Label" parent="."]
theme_override_colors/font_color = Color( 0.878431, 0.211765, 0.541176, 1 )
theme_override_fonts/font = ExtResource( 1 )
text = "00:00"
__meta__ = {
"_edit_use_anchors_": false
}
